module gitlab.com/cuahsi/tif-to-cog-as-a-service/services/upload_service

go 1.18

require (
	cloud.google.com/go/storage v1.10.0
	golang.org/x/oauth2 v0.0.0-20220524215830-622c5d57e401
	google.golang.org/api v0.74.0
)

require (
	cloud.google.com/go v0.100.2 // indirect
	cloud.google.com/go/compute v1.6.0 // indirect
	cloud.google.com/go/iam v0.3.0 // indirect
	github.com/golang/groupcache v0.0.0-20200121045136-8c9f03a8e57e // indirect
	github.com/golang/protobuf v1.5.2 // indirect
	github.com/googleapis/gax-go/v2 v2.3.0 // indirect
	go.opencensus.io v0.23.0 // indirect
	golang.org/x/net v0.0.0-20220325170049-de3da57026de // indirect
	golang.org/x/sys v0.0.0-20220328115105-d36c6a25d886 // indirect
	golang.org/x/text v0.3.7 // indirect
	golang.org/x/xerrors v0.0.0-20220411194840-2f41105eb62f // indirect
	google.golang.org/appengine v1.6.7 // indirect
	google.golang.org/genproto v0.0.0-20220413183235-5e96e2839df9 // indirect
	google.golang.org/grpc v1.45.0 // indirect
	google.golang.org/protobuf v1.28.0 // indirect
)
