module gitlab.com/cuahsi/tif-to-cog-as-a-service/gdal-translate-tif

go 1.18

require github.com/gin-gonic/gin v1.8.0

require (
	cloud.google.com/go v0.100.2 // indirect
	cloud.google.com/go/compute v1.6.0 // indirect
	cloud.google.com/go/iam v0.3.0 // indirect
	github.com/golang/groupcache v0.0.0-20200121045136-8c9f03a8e57e // indirect
	github.com/golang/protobuf v1.5.2 // indirect
	github.com/google/go-cmp v0.5.7 // indirect
	github.com/google/uuid v1.1.2 // indirect
	github.com/googleapis/gax-go/v2 v2.3.0 // indirect
	github.com/googleapis/go-type-adapters v1.0.0 // indirect
	go.opencensus.io v0.23.0 // indirect
	golang.org/x/oauth2 v0.0.0-20220411215720-9780585627b5 // indirect
	golang.org/x/xerrors v0.0.0-20220411194840-2f41105eb62f // indirect
	google.golang.org/api v0.74.0 // indirect
	google.golang.org/appengine v1.6.7 // indirect
	google.golang.org/genproto v0.0.0-20220518221133-4f43b3371335 // indirect
	google.golang.org/grpc v1.46.0 // indirect
)

require (
	cloud.google.com/go/storage v1.22.1
	github.com/gin-contrib/sse v0.1.0 // indirect
	github.com/go-playground/locales v0.14.0 // indirect
	github.com/go-playground/universal-translator v0.18.0 // indirect
	github.com/go-playground/validator/v10 v10.11.0 // indirect
	github.com/goccy/go-json v0.9.7 // indirect
	github.com/json-iterator/go v1.1.12 // indirect
	github.com/leodido/go-urn v1.2.1 // indirect
	github.com/lukeroth/gdal v0.0.0-20211109203239-b571df3ee436
	github.com/mattn/go-isatty v0.0.14 // indirect
	github.com/modern-go/concurrent v0.0.0-20180306012644-bacd9c7ef1dd // indirect
	github.com/modern-go/reflect2 v1.0.2 // indirect
	github.com/pelletier/go-toml/v2 v2.0.1 // indirect
	github.com/ugorji/go/codec v1.2.7 // indirect
	golang.org/x/crypto v0.0.0-20220525230936-793ad666bf5e // indirect
	golang.org/x/net v0.0.0-20220531201128-c960675eff93 // indirect
	golang.org/x/sys v0.0.0-20220520151302-bc2c85ada10a // indirect
	golang.org/x/text v0.3.7 // indirect
	google.golang.org/protobuf v1.28.0 // indirect
	gopkg.in/yaml.v2 v2.4.0 // indirect
)
